{
  "Enabled": true,
  "Triggers": [
    {
      "$type": "Forguncy.ServerCommands.Models.PostRequestTrigger, ServerDesignerCommon",
      "Permission": {
        "AllowRoles": [
          "FGC_LoginUser"
        ]
      },
      "InvokeTriggerTestData": {
        "UserName": "Administrator"
      }
    }
  ],
  "Commands": [
    {
      "$type": "Forguncy.Model.LoopCommand, ServerDesignerCommon",
      "LoopInfo": {
        "$type": "Forguncy.Model.CountLoopInfo, ServerDesignerCommon",
        "LoopCount": "10",
        "LoopIndexParamName": "i",
        "LoopItemParamName": ""
      },
      "CommandList": [
        {
          "$type": "Forguncy.Model.UpdateDataTableCommand, ServerDesignerCommon",
          "TableName": "jeffery_li",
          "UpdateType": "add",
          "ShowConfirm": false,
          "ConfirmText": "您确定添加这条记录?",
          "UpdateValues": [
            {
              "ColumnName": "name",
              "Value": {
                "$type": "Forguncy.Model.FormulaReferObject, ServerDesignerCommon",
                "SerializeProperty": "=i&\"_name\""
              }
            },
            {
              "ColumnName": "email",
              "Value": {
                "$type": "Forguncy.Model.FormulaReferObject, ServerDesignerCommon",
                "SerializeProperty": "=i&\"@grapecity.com\""
              }
            },
            {
              "ColumnName": "age",
              "Value": {
                "$type": "Forguncy.Model.FormulaReferObject, ServerDesignerCommon",
                "SerializeProperty": "=i"
              }
            },
            {
              "ColumnName": "is_male",
              "Value": "true"
            },
            {
              "ColumnName": "salary",
              "Value": {
                "$type": "Forguncy.Model.FormulaReferObject, ServerDesignerCommon",
                "SerializeProperty": "=i"
              }
            }
          ]
        }
      ]
    }
  ],
  "Name": "init_jeffery_li"
}