{
  "Rows": {
    "RowColumnAttachedInfos": {
      "3": {
        "GridRowColumnDefinition": {
          "DesignLengthInPixel": 55.0
        }
      },
      "5": {
        "GridRowColumnDefinition": {
          "DesignLengthInPixel": 30.0
        }
      },
      "7": {
        "GridRowColumnDefinition": {
          "DesignLengthInPixel": 30.0
        }
      },
      "8": {
        "GridRowColumnDefinition": {
          "DesignLengthInPixel": 30.0
        }
      },
      "9": {
        "GridRowColumnDefinition": {
          "DesignLengthInPixel": 30.0
        }
      }
    },
    "Count": 45
  },
  "Cols": {
    "Count": 60
  },
  "Values": {
    "3,25": "_928 列表",
    "7,6": "添加记录",
    "9,38": "更改",
    "9,41": "删除"
  },
  "AttachInfos": {
    "3,41": {
      "CellType": {
        "$type": "Forguncy.ButtonCellType, ServerDesignerCommon",
        "CommandList": [
          {
            "$type": "Forguncy.Model.RunJavaScriptCommand, ServerDesignerCommon",
            "JavaScript": "Forguncy.addTableData(\"_928\", { ID: 5 }, function (data) { console.log(\"成功\"); }, function (data) { console.log(\"失败\"); });\r\n",
            "ID": "7634713d95f849ff9bda863fcb812b61"
          }
        ],
        "TemplateKey": "_RS_Normal_Style2"
      }
    },
    "5,37": {
      "CellType": {
        "$type": "Forguncy.CurrentUserCellType, ServerDesignerCommon",
        "CellCustomValue": "%CurrentUser%",
        "NavigateSettingWhenLogout": {
          "NavigateWhenLogoutMode": 1
        }
      }
    },
    "7,6": {
      "CellType": {
        "$type": "Forguncy.HyperlinkCellType, ServerDesignerCommon",
        "CommandList": [
          {
            "$type": "Forguncy.Model.NavigateCommand, ServerDesignerCommon",
            "PageName": "_928_详情页面",
            "PassValues": [
              {
                "Source": "添加",
                "TargetCell": {
                  "SerializeProperty": "=_928_详情页面!K34"
                }
              }
            ],
            "LoadBindingDataOption": 2
          }
        ],
        "Text": "添加记录"
      }
    },
    "8,6": {
      "ListViewInfo": {
        "ShowColumnHeaderInDesigner": true,
        "TableName": "tibero",
        "RowIndex": 8,
        "ColumnIndex": 6,
        "ColumnCount": 38,
        "RowCount": 12,
        "IsRowHeaderVisible": true,
        "AllowEditInListview": true,
        "AllowAddNewRow": true,
        "ColumnOperation": 2,
        "ShowGridLine": true,
        "ShowEditStatusIcon": true,
        "UseSimpleBar": true,
        "Name": "表格1",
        "TopCondition": null,
        "ListViewStyleName": "_RS_Medium2"
      }
    },
    "9,8": {
      "BindingInfo": {
        "TableName": "tibero",
        "ColumnName": "ID"
      }
    },
    "9,11": {
      "BindingInfo": {
        "TableName": "tibero",
        "ColumnName": "文本"
      }
    },
    "9,14": {
      "BindingInfo": {
        "TableName": "tibero",
        "ColumnName": "ikoko"
      }
    },
    "9,17": {
      "BindingInfo": {
        "TableName": "tibero",
        "ColumnName": "小数"
      }
    },
    "9,20": {
      "BindingInfo": {
        "TableName": "tibero",
        "ColumnName": "日期"
      }
    },
    "9,23": {
      "BindingInfo": {
        "TableName": "tibero",
        "ColumnName": "时间"
      }
    },
    "9,26": {
      "BindingInfo": {
        "TableName": "tibero",
        "ColumnName": "是_否"
      }
    },
    "9,29": {
      "BindingInfo": {
        "TableName": "tibero",
        "ColumnName": "用户"
      }
    },
    "9,32": {
      "CellType": {
        "$type": "Forguncy.UploadImageCellType, ServerDesignerCommon"
      },
      "BindingInfo": {
        "TableName": "tibero",
        "ColumnName": "图片"
      }
    },
    "9,35": {
      "CellType": {
        "$type": "Forguncy.AttachmentCelltype, ServerDesignerCommon",
        "UploadLimit": {
          "ExtensionFilter": ".jpg, .jpeg, .png, .gif, .bmp, .xlsx, .docx, .doc, .xls, .pdf",
          "ReplaceWhenOneFile": true
        }
      },
      "BindingInfo": {
        "TableName": "tibero",
        "ColumnName": "附件"
      }
    },
    "9,38": {
      "CellType": {
        "$type": "Forguncy.HyperlinkCellType, ServerDesignerCommon",
        "CommandList": [
          {
            "$type": "Forguncy.Model.NavigateCommand, ServerDesignerCommon",
            "PageName": "_928_详情页面",
            "PassValues": [
              {
                "Source": "更改",
                "TargetCell": {
                  "SerializeProperty": "=_928_详情页面!K34"
                }
              }
            ],
            "LoadBindingDataOption": 1
          }
        ],
        "Text": "更改"
      }
    },
    "9,41": {
      "CellType": {
        "$type": "Forguncy.HyperlinkCellType, ServerDesignerCommon",
        "CommandList": [
          {
            "$type": "Forguncy.Model.DeleteRecordCommand, ServerDesignerCommon",
            "ConfirmText": "您确定要删除吗？",
            "UpdateValues": []
          }
        ],
        "Text": "删除"
      }
    }
  },
  "StyleDatas": {
    "Styles": [
      {
        "FontSize": 30.0,
        "HorizontalAlignment": 0,
        "VerticalAlignment": 0
      },
      {
        "FontSize": 15.0,
        "HorizontalAlignment": 1,
        "VerticalAlignment": 0
      },
      {
        "Foreground": 2,
        "Underline": true
      },
      {
        "BorderTop": 0,
        "BorderLeft": 0
      },
      {
        "BorderTop": 0
      },
      {
        "BorderTop": 0,
        "BorderRight": 0
      },
      {
        "BorderBottom": 1,
        "BorderLeft": 0,
        "BorderRight": 1
      },
      {
        "BorderBottom": 1,
        "BorderLeft": 1,
        "BorderRight": 1
      },
      {
        "Foreground": 2,
        "Underline": true,
        "BorderBottom": 1,
        "BorderLeft": 1,
        "BorderRight": 1
      },
      {
        "BorderBottom": 1,
        "BorderLeft": 1,
        "BorderRight": 0
      },
      {
        "BorderLeft": 0
      },
      {
        "BorderRight": 0
      },
      {
        "BorderBottom": 0,
        "BorderLeft": 0
      },
      {
        "BorderBottom": 0
      },
      {
        "BorderBottom": 0,
        "BorderRight": 0
      }
    ],
    "Types": {
      "Strs": [
        "Center",
        "Right",
        "Blue",
        "DarkGray",
        "#D8D8D8",
        "Body"
      ],
      "Borders": [
        {
          "Color": 3
        },
        {
          "Color": 4
        }
      ]
    },
    "CellStyles": {
      "3,25": 0,
      "5,37": 1,
      "7,6": 2,
      "8,6": 3,
      "8,7": 4,
      "8,8": 4,
      "8,9": 4,
      "8,10": 4,
      "8,11": 4,
      "8,12": 4,
      "8,13": 4,
      "8,14": 4,
      "8,15": 4,
      "8,16": 4,
      "8,17": 4,
      "8,18": 4,
      "8,19": 4,
      "8,20": 4,
      "8,21": 4,
      "8,22": 4,
      "8,23": 4,
      "8,24": 4,
      "8,25": 4,
      "8,26": 4,
      "8,27": 4,
      "8,28": 4,
      "8,29": 4,
      "8,30": 4,
      "8,31": 4,
      "8,32": 4,
      "8,33": 4,
      "8,34": 4,
      "8,35": 4,
      "8,36": 4,
      "8,37": 4,
      "8,38": 4,
      "8,39": 4,
      "8,40": 4,
      "8,41": 4,
      "8,42": 4,
      "8,43": 5,
      "9,6": 6,
      "9,7": 7,
      "9,8": 7,
      "9,9": 7,
      "9,10": 7,
      "9,11": 7,
      "9,12": 7,
      "9,13": 7,
      "9,14": 7,
      "9,15": 7,
      "9,16": 7,
      "9,17": 7,
      "9,18": 7,
      "9,19": 7,
      "9,20": 7,
      "9,21": 7,
      "9,22": 7,
      "9,23": 7,
      "9,24": 7,
      "9,25": 7,
      "9,26": 7,
      "9,27": 7,
      "9,28": 7,
      "9,29": 7,
      "9,30": 7,
      "9,31": 7,
      "9,32": 7,
      "9,33": 7,
      "9,34": 7,
      "9,35": 8,
      "9,36": 7,
      "9,37": 7,
      "9,38": 8,
      "9,39": 7,
      "9,40": 7,
      "9,41": 8,
      "9,42": 7,
      "9,43": 9,
      "10,6": 10,
      "10,43": 11,
      "11,6": 10,
      "11,43": 11,
      "12,6": 10,
      "12,43": 11,
      "13,6": 10,
      "13,43": 11,
      "14,6": 10,
      "14,43": 11,
      "15,6": 10,
      "15,43": 11,
      "16,6": 10,
      "16,43": 11,
      "17,6": 10,
      "17,43": 11,
      "18,6": 10,
      "18,43": 11,
      "19,6": 12,
      "19,7": 13,
      "19,8": 13,
      "19,9": 13,
      "19,10": 13,
      "19,11": 13,
      "19,12": 13,
      "19,13": 13,
      "19,14": 13,
      "19,15": 13,
      "19,16": 13,
      "19,17": 13,
      "19,18": 13,
      "19,19": 13,
      "19,20": 13,
      "19,21": 13,
      "19,22": 13,
      "19,23": 13,
      "19,24": 13,
      "19,25": 13,
      "19,26": 13,
      "19,27": 13,
      "19,28": 13,
      "19,29": 13,
      "19,30": 13,
      "19,31": 13,
      "19,32": 13,
      "19,33": 13,
      "19,34": 13,
      "19,35": 13,
      "19,36": 13,
      "19,37": 13,
      "19,38": 13,
      "19,39": 13,
      "19,40": 13,
      "19,41": 13,
      "19,42": 13,
      "19,43": 14
    },
    "SheetStyle": {
      "FontFamily": 5
    }
  },
  "Spans": [
    "5,37,1,7",
    "10,6,10,38",
    "9,6,1,2",
    "9,8,1,3",
    "9,11,1,3",
    "9,14,1,3",
    "9,17,1,3",
    "9,20,1,3",
    "9,23,1,3",
    "9,26,1,3",
    "9,29,1,3",
    "9,32,1,3",
    "9,35,1,3",
    "9,38,1,3",
    "9,41,1,3",
    "3,41,1,4",
    "8,6,1,2",
    "8,8,1,3",
    "8,11,1,3",
    "8,14,1,3",
    "8,17,1,3",
    "8,20,1,3",
    "8,23,1,3",
    "8,26,1,3",
    "8,29,1,3",
    "8,32,1,3",
    "8,35,1,3",
    "8,38,1,3",
    "8,41,1,3"
  ],
  "PageInfo": {
    "$type": "Forguncy.Model.Pages.NormalPage, ServerDesignerCommon",
    "AuthorizeInfo": {
      "VisitMode": 2
    },
    "RowBreakLines": [],
    "RepeatRangeSettings": []
  },
  "PrintInfo": {
    "Margin": {},
    "PaperSize": {}
  }
}//zDXurLp0N7PQ0bqjUMPW5RJVYnPDXaoG23QaQ+GCi/NRhUiekucfSkK4xYJhSK8H3WFQ1brXhfW2+3cAWwN7co39e8sJ8uuM0Bq6dg9UWRPwTKU1FzyrrnV2RCUrXBF1SyCeJwjYHqLH3x7cHxMMMsNPuJYifuomCx8fsgR56L94D9jeO4w4HFKQ1aKtKanrqWFnnC+5WeSOFoTZEXWrNAH6y9f6/NQp4SPyWWqVv0fqmN3VuXRLqFYaicDhdrJzZzHCnWapVeMjFzKqqIAs4oask7/+EsIdimZbwTQicW7bU3QoCH7E5ozp37eoDxusCQWJgF9ipA5gH1K6OzcM6kKJkCT/1wvUgjCC5RFaj4mve1HmxonMw9RYWeD19gT/cHh7RcvbL60A1Jmq8YppZjjYLAhJQJyiNVJW+kTUfjx3qr64HA2yxjgMcjRM3/BYPP7d/ji/Z3TBcjQGlz4xkmcXZCcFmrzFAoSE51UC+UD7D0eHl+3sR44a3WBtYiMZv7wTIiK1t6CmnSSTDqUBGLly5ixO61ZIQJiVNY6NzJTbkmWGQUUg9yT2GZOZpXruCHv26KZ9LZ4Wz9p8VSbRds3QZVKFertW4ih8s067TIouzXAp+b3Yh4KYIcWjkzUheVOXxR0tFfDJWUhK9NRhOjunI7dBg5Iz3B/MYZoWr0/1oTMHa5v6hxqPzbwObRLPCnFlBi9uwNUgfhAg3RA+S4g//TBVi2LKv0DORDfyCg5+aestzsFXdZ7Xt6mc7e+8jmk51J1IfE2QAgYG2GkCwF/dTSs5fLr0se4VyzkRP5x8sMLhpBw1wvJWsEo/UUs9LfTXaxNi+o1Zb8J2V4FfGlv1pkN/c/KICYehT5OaKLfKGMgTXaS97GNHw28a0Wg6msJzGiVNm2amM37dKIZ0+Q==|920